<?xml version="1.0" encoding="utf-8"?>
<COLLADA xmlns="http://www.collada.org/2005/11/COLLADASchema" version="1.4.1" xmlns:xsi="http://www.w3.org/2001/XMLSchema-instance">
  <asset>
    <contributor>
      <author>Blender User</author>
      <authoring_tool>Blender 2.79.0 commit date:2017-09-11, commit time:10:43, hash:5bd8ac9</authoring_tool>
    </contributor>
    <created>2019-05-26T16:51:05</created>
    <modified>2019-05-26T16:51:05</modified>
    <unit name="meter" meter="1"/>
    <up_axis>Z_UP</up_axis>
  </asset>
  <library_images/>
  <library_effects>
    <effect id="Material_001-effect">
      <profile_COMMON>
        <technique sid="common">
          <phong>
            <emission>
              <color sid="emission">0 0 0 1</color>
            </emission>
            <ambient>
              <color sid="ambient">0 0 0 1</color>
            </ambient>
            <diffuse>
              <color sid="diffuse">0.64 0.64 0.64 1</color>
            </diffuse>
            <specular>
              <color sid="specular">0.5 0.5 0.5 1</color>
            </specular>
            <shininess>
              <float sid="shininess">50</float>
            </shininess>
            <index_of_refraction>
              <float sid="index_of_refraction">1</float>
            </index_of_refraction>
          </phong>
        </technique>
      </profile_COMMON>
    </effect>
    <effect id="Material_002-effect">
      <profile_COMMON>
        <technique sid="common">
          <phong>
            <emission>
              <color sid="emission">0 0 0 1</color>
            </emission>
            <ambient>
              <color sid="ambient">0 0 0 1</color>
            </ambient>
            <diffuse>
              <color sid="diffuse">0.2002527 0.3721991 0.64 1</color>
            </diffuse>
            <specular>
              <color sid="specular">0.5 0.5 0.5 1</color>
            </specular>
            <shininess>
              <float sid="shininess">50</float>
            </shininess>
            <index_of_refraction>
              <float sid="index_of_refraction">1</float>
            </index_of_refraction>
          </phong>
        </technique>
      </profile_COMMON>
    </effect>
  </library_effects>
  <library_materials>
    <material id="Material_001-material" name="Material_001">
      <instance_effect url="#Material_001-effect"/>
    </material>
    <material id="Material_002-material" name="Material_002">
      <instance_effect url="#Material_002-effect"/>
    </material>
  </library_materials>
  <library_geometries>
    <geometry id="Cube_001-mesh" name="Cube.001">
      <mesh>
        <source id="Cube_001-mesh-positions">
          <float_array id="Cube_001-mesh-positions-array" count="126">-0.08573204 -0.0832777 0.08919942 -0.08573204 -0.0832777 0.116672 -0.08573204 0.0832777 0.08919942 -0.08573204 0.0832777 0.116672 0.08573204 -0.0832777 0.08919942 0.08573204 -0.0832777 0.116672 0.08573204 0.0832777 0.08919942 0.08573204 0.0832777 0.116672 -0.08573204 -0.0832777 -0.00144726 -0.08573204 -0.0832777 0.02602529 -0.08573204 0.0832777 -0.00144726 -0.08573204 0.0832777 0.02602529 0.08573204 -0.0832777 -0.00144726 0.08573204 -0.0832777 0.02602529 0.08573204 0.0832777 -0.00144726 0.08573204 0.0832777 0.02602529 0 0.06628829 -0.04630726 0 0.06628829 0.1571914 0.0308057 0.05869537 -0.04630726 0.0308057 0.05869537 0.1571914 0.05455422 0.03765606 -0.04630726 0.05455422 0.03765606 0.1571914 0.06580501 0.007990121 -0.04630726 0.06580501 0.007990121 0.1571914 0.06198066 -0.02350616 -0.04630726 0.06198066 -0.02350616 0.1571914 0.04395729 -0.04961752 -0.04630726 0.04395729 -0.04961752 0.1571914 0.01586383 -0.0643621 -0.04630726 0.01586383 -0.0643621 0.1571914 -0.01586383 -0.0643621 -0.04630726 -0.01586383 -0.0643621 0.1571914 -0.04395729 -0.04961752 -0.04630726 -0.04395729 -0.04961752 0.1571914 -0.06198066 -0.02350616 -0.04630726 -0.06198066 -0.02350616 0.1571914 -0.06580501 0.007990181 -0.04630726 -0.06580501 0.007990181 0.1571914 -0.05455422 0.03765606 -0.04630726 -0.05455422 0.03765606 0.1571914 -0.0308057 0.05869537 -0.04630726 -0.0308057 0.05869537 0.1571914</float_array>
          <technique_common>
            <accessor source="#Cube_001-mesh-positions-array" count="42" stride="3">
              <param name="X" type="float"/>
              <param name="Y" type="float"/>
              <param name="Z" type="float"/>
            </accessor>
          </technique_common>
        </source>
        <source id="Cube_001-mesh-normals">
          <float_array id="Cube_001-mesh-normals-array" count="129">-1 0 0 0 1 0 1 0 0 0 -1 0 0 0 -1 0 0 1 0.2393157 0.9709419 0 0.6631226 0.7485108 0 0.9350163 0.3546048 0 0.9927089 -0.1205368 0 0.822984 -0.5680646 0 0.4647232 -0.885456 0 -0.4647232 -0.8854562 0 -0.8229839 -0.5680648 0 -0.9927089 -0.1205367 0 -0.9350162 0.354605 0 -0.6631223 0.7485111 0 -0.2393153 0.9709419 0 0 0 -1 0.2393157 0.9709419 0 0.6631229 0.7485106 0 0.9927089 -0.1205368 0 0.8229839 -0.5680648 0 0.4647232 -0.885456 0 -0.4647232 -0.885456 0 -0.9927089 -0.1205367 0 -0.9350163 0.3546048 0 -9.95405e-7 0 1 2.98621e-6 0 1 -3.98162e-6 0 1 7.18466e-7 0 1 -8.11408e-7 0 1 -1.49058e-7 0 1 1.39559e-7 0 1 -0.6631225 0.7485109 0 -0.2393153 0.9709419 0 4.05704e-7 0 -1 4.97702e-7 0 -1 -9.95403e-7 0 -1 3.59233e-7 0 -1 -7.18466e-7 0 -1 -1.49058e-7 0 -1 0 0 -1</float_array>
          <technique_common>
            <accessor source="#Cube_001-mesh-normals-array" count="43" stride="3">
              <param name="X" type="float"/>
              <param name="Y" type="float"/>
              <param name="Z" type="float"/>
            </accessor>
          </technique_common>
        </source>
        <vertices id="Cube_001-mesh-vertices">
          <input semantic="POSITION" source="#Cube_001-mesh-positions"/>
        </vertices>
        <triangles material="Material_001-material" count="24">
          <input semantic="VERTEX" source="#Cube_001-mesh-vertices" offset="0"/>
          <input semantic="NORMAL" source="#Cube_001-mesh-normals" offset="1"/>
          <p>1 0 2 0 0 0 3 1 6 1 2 1 7 2 4 2 6 2 5 3 0 3 4 3 6 4 0 4 2 4 3 5 5 5 7 5 9 0 10 0 8 0 11 1 14 1 10 1 15 2 12 2 14 2 13 3 8 3 12 3 14 4 8 4 10 4 11 5 13 5 15 5 1 0 3 0 2 0 3 1 7 1 6 1 7 2 5 2 4 2 5 3 1 3 0 3 6 4 4 4 0 4 3 5 1 5 5 5 9 0 11 0 10 0 11 1 15 1 14 1 15 2 13 2 12 2 13 3 9 3 8 3 14 4 12 4 8 4 11 5 9 5 13 5</p>
        </triangles>
        <triangles material="Material_002-material" count="48">
          <input semantic="VERTEX" source="#Cube_001-mesh-vertices" offset="0"/>
          <input semantic="NORMAL" source="#Cube_001-mesh-normals" offset="1"/>
          <p>17 6 18 6 16 6 19 7 20 7 18 7 21 8 22 8 20 8 23 9 24 9 22 9 25 10 26 10 24 10 27 11 28 11 26 11 29 3 30 3 28 3 31 12 32 12 30 12 33 13 34 13 32 13 35 14 36 14 34 14 37 15 38 15 36 15 17 5 35 5 23 5 39 16 40 16 38 16 41 17 16 17 40 17 18 18 26 18 34 18 17 19 19 19 18 19 19 20 21 20 20 20 21 8 23 8 22 8 23 21 25 21 24 21 25 22 27 22 26 22 27 23 29 23 28 23 29 3 31 3 30 3 31 24 33 24 32 24 33 13 35 13 34 13 35 25 37 25 36 25 37 26 39 26 38 26 21 5 19 5 17 5 17 27 41 27 39 27 39 5 37 5 17 5 35 28 33 28 31 28 31 5 29 5 27 5 27 29 25 29 23 29 23 30 21 30 17 30 17 31 37 31 35 31 35 32 31 32 27 32 27 33 23 33 35 33 39 34 41 34 40 34 41 35 17 35 16 35 40 4 16 4 18 4 18 36 20 36 26 36 22 4 24 4 26 4 26 4 28 4 30 4 30 37 32 37 34 37 34 38 36 38 38 38 38 39 40 39 34 39 20 40 22 40 26 40 26 41 30 41 34 41 34 42 40 42 18 42</p>
        </triangles>
      </mesh>
    </geometry>
  </library_geometries>
  <library_controllers/>
  <library_visual_scenes>
    <visual_scene id="Scene" name="Scene">
      <node id="Cube" name="Cube" type="NODE">
        <matrix sid="transform">1 0 0 0 0 1 0 0 0 0 1 0 0 0 0 1</matrix>
        <instance_geometry url="#Cube_001-mesh" name="Cube">
          <bind_material>
            <technique_common>
              <instance_material symbol="Material_001-material" target="#Material_001-material"/>
              <instance_material symbol="Material_002-material" target="#Material_002-material"/>
            </technique_common>
          </bind_material>
        </instance_geometry>
      </node>
    </visual_scene>
  </library_visual_scenes>
  <scene>
    <instance_visual_scene url="#Scene"/>
  </scene>
</COLLADA>